[gd_scene load_steps=3 format=2]

[ext_resource path="res://graphics/environment/pieth_sol.png" type="Texture" id=1]

[sub_resource type="RectangleShape2D" id=1]
extents = Vector2( 200.703, 28.7416 )

[node name="Node2D" type="Node2D"]
scale = Vector2( 0.3, 0.3 )

[node name="Sprite" type="Sprite" parent="."]
texture = ExtResource( 1 )

[node name="KinematicBody2D" type="KinematicBody2D" parent="."]
collision_mask = 7

[node name="CollisionShape2D" type="CollisionShape2D" parent="KinematicBody2D"]
position = Vector2( -2.22726, 45.4358 )
shape = SubResource( 1 )
